ST558 Homework 8
…
  # Previously
  across(a:b, mean, na.rm = TRUE)

  # Now
  across(a:b, \(x) mean(x, na.rm = TRUE))

`summarise()` has grouped output by 'date', 'season'. You can override using
the `.groups` argument.

sum_data

# A tibble: 353 × 12
# Groups:   date, season [353]
   date       season holiday  count rainfall snowfall    temp humidity windspeed
   <date>     <fct>  <fct>    <dbl>    <dbl>    <dbl>   <dbl>    <dbl>     <dbl>
 1 2017-12-01 Winter No Holi…  9539      0        0   -2.45       45.9     1.54 
 2 2017-12-02 Winter No Holi…  8523      0        0    1.32       62.0     1.71 
 3 2017-12-03 Winter No Holi…  7222      4        0    4.88       81.5     1.61 
 4 2017-12-04 Winter No Holi…  8729      0.1      0   -0.304      52.5     3.45 
 5 2017-12-05 Winter No Holi…  8307      0        0   -4.46       36.4     1.11 
 6 2017-12-06 Winter No Holi…  6669      1.3      8.6  0.0458     70.8     0.696
 7 2017-12-07 Winter No Holi…  8549      0       10.4  1.09       67.5     1.69 
 8 2017-12-08 Winter No Holi…  8032      0        0   -3.82       41.8     1.85 
 9 2017-12-09 Winter No Holi…  7233      0        0   -0.846      46       1.08 
10 2017-12-10 Winter No Holi…  3453      4.1     32.5  1.19       69.7     2.00 
# ℹ 343 more rows
# ℹ 3 more variables: visibility <dbl>, dewpoint <dbl>, radiation <dbl>
…
## fitting best model to entire training data set
best_fit  <- last_fit(bike_wfl_3, bike_split)
collect_metrics(best_fit)

# A tibble: 2 × 4
  .metric .estimator .estimate .config             
  <chr>   <chr>          <dbl> <chr>               
1 rmse    standard    3194.    Preprocessor1_Model1
2 rsq     standard       0.900 Preprocessor1_Model1

best_fit |>
  extract_fit_parsnip() |>
  tidy()

# A tibble: 29 × 5
   term                               estimate std.error statistic  p.value
   <chr>                                 <dbl>     <dbl>     <dbl>    <dbl>
 1 (Intercept)                          16147.     1800.    8.97   9.68e-17
 2 season_Spring                        -1963.     2621.   -0.749  4.55e- 1
 3 season_Summer                        17510.     3843.    4.56   8.35e- 6
 4 season_Winter                        -9577.     2748.   -3.49   5.87e- 4
 5 holiday_No.Holiday                    5022.     1628.    3.09   2.28e- 3
 6 day_type_weekend                     -2684.      376.   -7.14   1.12e-11
 7 season_Spring_x_holiday_No.Holiday   -2066.     2672.   -0.773  4.40e- 1
 8 season_Summer_x_holiday_No.Holiday    -288.     3199.   -0.0902 9.28e- 1
 9 season_Winter_x_holiday_No.Holiday   -1911.     1955.   -0.977  3.29e- 1
10 temp_x_rainfall                      -1480.      498.   -2.97   3.26e- 3
# ℹ 19 more rows
